地址接口 http://localhost:8080/community/query

请求类型：get

{
	"resultcode":1, //1成功 0失败
	"result": [
		{
			"id": 1,
			"code": "mky",
			"name": "铭科苑"
		},
		{
			"id": 2,
			"code": "xlc",
			"name": "新龙城"
		}
	],
	"resultmsg":"获取成功"
}

分类接口 http://localhost:8080/lstype/query

请求参数：小区code
请求类型：get

{
	"resultcode":1,
	"result": [
		{
			"id": 1,
			"code": "qb",
			"name": "全部"
		},
		{
			"id": 2,
			"code": "ls",
			"name": "零食"
		},
		{
			"id": 3,
			"code": "rh",
			"name": "日化"
		}
	],
	"resultmsg":"获取成功"
}

商品列表接口	http://localhost:8080/ls/query

请求参数：classfiy(分类 分类接口中name值)，page(分页的页数) cCode(小区 地址接口中code值)
请求类型：get

{
  "result": {
    "firstPage": true,
    "lastPage": false,
    "list": [
      {
        "code": "Lyltsbss001",
        "count": "12",
        "detail": "百事可乐330ml听装",
        "id": "8",
        "marPrice": "2.00",
        "price": "1.80",
        "url": "http://www.earthcenter.com.cn/Lyltsbss001"
      },
      {
        "code": "Lyltsbss006",
        "count": "12",
        "detail": "百事七喜330ml听装",
        "id": "13",
        "marPrice": "2.00",
        "price": "1.80",
        "url": "http://www.earthcenter.com.cn/Lyltsbss006"
      },
      {
        "code": "Lyltsbss102",
        "count": "12",
        "detail": "百事可乐600ml",
        "id": "9",
        "marPrice": "3.00",
        "price": "2.50",
        "url": "http://www.earthcenter.com.cn/Lyltsbss102"
      },
      {
        "code": "Lyltsbss104",
        "count": "12",
        "detail": "百事美年达桃味600ml",
        "id": "11",
        "marPrice": "3.00",
        "price": "2.50",
        "url": "http://www.earthcenter.com.cn/Lyltsbss104"
      },
      {
        "code": "Lyltsbss105",
        "count": "12",
        "detail": "百事美年达橙味600ml",
        "id": "12",
        "marPrice": "3.00",
        "price": "2.50",
        "url": "http://www.earthcenter.com.cn/Lyltsbss105"
      }
    ],
    "pageNumber": 1,
    "pageSize": 5,
    "totalPage": 3,
    "totalRow": 11
  },
  "resultcode": "1",
  "resultmsg": "查询成功"
}


购物车接口
请求类型：get

请求参数：uid(用户名)，code(商品的唯一标识)
请求类型：get

{
	"resultcode":1, //1成功 0失败
	"result": [
		{
			"uid": "22222222", //用户id
			"code": "kkkl", //商品的唯一标识
			"number": "1" //商品数量
		}
	],
	"resultmsg":"获取成功"
}